sizeof(int)=4
array: x[2][128] (array size: 4 * 256 = 1024)

A.
キャッシュサイズが512バイトの場合、このCコードの配列は、以下のようにキャッシュ
にマップされる。

Cache size: 512 , block=16 なので、 set=32

set:0                      | set:1       | set: 31
x[0][0], x[0][1]...x[0][3], x[0][4], ... , x[0][124], x[0][125], x[0][126]...x[0][127]
set:0                      | set:1       | set: 31
x[1][0], x[1][1]...x[1][3], x[1][4], ... , x[0][124], x[0][125], x[0][126]...x[0][127]

このCコードは、以下のように同一セットのキャシュに格納される値同士を、
毎イテレーション乗算する。
    i=0: x[0][0] * x[1][0]
    i=1: x[0][1] * x[1][1]
    ...
そのため、各ループの演算において、x[0][i]をキャッシュに読み込んだ後、
x[1][i]が同一セットであるため、キャッシュミスとなり、再度キャッシュに読み込む
という動作を最後まで繰り返す。従って、ミス率は100%となる。

B.
Cache size: 1024 , block=16 なので、 set=64

set:0                      | set:1       | set: 31
x[0][0], x[0][1]...x[0][3], x[0][4], ... , x[0][124], x[0][125], x[0][126]...x[0][127]
set:32                     | set:32      | set: 63
x[1][0], x[1][1]...x[1][3], x[1][4], ... , x[0][124], x[0][125], x[0][126]...x[0][127]

A と異なり、配列x[2][128]全体がキャッシュ可能である。
各セットの最初の要素を読み込むと、続く3イテレーションで、キャッシュにヒットするため、
ミス率は、25%となる。

C.
Cache size: 512, block=16, 2way set なので、set=16

set:0                      | set:1       | set: 15     | set: 0
x[0][0], x[0][1]...x[0][3], x[0][4], ... , x[0][60]..., x[0][64], ..., x[0][127]
set:0                      | set:1       | set: 15     | set: 0
x[1][0], x[1][1]...x[1][3], x[1][4], ... , x[0][60]..., x[0][64], ..., x[0][127]

同一セットに2つまでキャシュ可能なため、イテレーション毎の演算に必要な要素は
全てキャッシュに乗る。従って、B と同様にミス率は、25%となる。

D.
既に、イテレーション毎の演算に必要な要素がキャッシュに乗っている状況なので、
キャッシュサイズが増えても、ミス率は変化しない。

E.
ブロック・サイズを増やすと、ミス率は低下する。
配列の１要素にアクセスした場合に、キャッシュされる要素の数が増えるため、
その分、キャッシュにヒットする回数が増加する。
